Sold:
Вода минеральная Хорошо(0.3) - 1854 pieces
Вода минеральная Хорошо(1.5) - 2062 pieces
Пиво Одесское Новое - 1859 pieces
Красная испанка - 2042 pieces
Сок Богач Грейпфрутовый - 1885 pieces
Енерджи бум Плюс - 2028 pieces
Мартини Биссе - 1812 pieces
Два моря - 1909 pieces

Purchased:
Вода минеральная Хорошо(0.3) - 1350 pieces
Вода минеральная Хорошо(1.5) - 1800 pieces
Пиво Одесское Новое - 1800 pieces
Красная испанка - 2100 pieces
Сок Богач Грейпфрутовый - 1800 pieces
Енерджи бум Плюс - 2100 pieces
Мартини Биссе - 1950 pieces
Два моря - 1950 pieces

Profit = Produced - Outlay:
Вода минеральная Хорошо(0.3) : 6344,95 = 19831,45 - 13486,50
Вода минеральная Хорошо(1.5) : 6310,99 = 34156,99 - 27846,00
Пиво Одесское Новое : 2524,26 = 26374,26 - 23850,00
Красная испанка : 6911,20 = 174911,20 - 168000,00
Сок Богач Грейпфрутовый : 4814,04 = 44414,04 - 39600,00
Енерджи бум Плюс : 1725,76 = 52440,76 - 50715,00
Мартини Биссе : -1986,45 = 397763,55 - 399750,00
Два моря : 18409,95 = 398659,95 - 380250,00
Total: 45054,69 = 1148552,19 - 1103497,50

